{
  "project_info": {
    "project_number": "868111373211",
    "firebase_url": "https://we-drink-idelivery.firebaseio.com",
    "project_id": "we-drink-idelivery",
    "storage_bucket": "we-drink-idelivery.appspot.com"
  },
  "client": [
    {
      "client_info": {
        "mobilesdk_app_id": "1:868111373211:android:8c87903324be9e1392473e",
        "android_client_info": {
          "package_name": "br.com.ideliveryapp.idrink"
        }
      },
      "oauth_client": [
        {
          "client_id": "868111373211-nhjtjdopo2kmqkv7j7vo609l2rh4rth6.apps.googleusercontent.com",
          "client_type": 3
        }
      ],
      "api_key": [
        {
          "current_key": "AIzaSyD2leS4uOsXSzgvUePNLI4l2wxFSYjMCpQ"
        }
      ],
      "services": {
        "appinvite_service": {
          "other_platform_oauth_client": [
            {
              "client_id": "868111373211-nhjtjdopo2kmqkv7j7vo609l2rh4rth6.apps.googleusercontent.com",
              "client_type": 3
            }
          ]
        }
      }
    }
  ],
  "configuration_version": "1"
}