{
  "project_info": {
    "project_number": "241468477819",
    "firebase_url": "https://fixfone-idelivery.firebaseio.com",
    "project_id": "fixfone-idelivery",
    "storage_bucket": "fixfone-idelivery.appspot.com"
  },
  "client": [
    {
      "client_info": {
        "mobilesdk_app_id": "1:241468477819:android:a4c1fb4230acd0e899edde",
        "android_client_info": {
          "package_name": "br.com.ideliveryapp.fixfone"
        }
      },
      "oauth_client": [
        {
          "client_id": "241468477819-o80htorasdqbgpi86l6tma5gkoand5uj.apps.googleusercontent.com",
          "client_type": 3
        }
      ],
      "api_key": [
        {
          "current_key": "AIzaSyDFU5W8yOM85TObRCO7LK1_11xk1z7PRGw"
        }
      ],
      "services": {
        "appinvite_service": {
          "other_platform_oauth_client": [
            {
              "client_id": "241468477819-o80htorasdqbgpi86l6tma5gkoand5uj.apps.googleusercontent.com",
              "client_type": 3
            }
          ]
        }
      }
    }
  ],
  "configuration_version": "1"
}