{
	"config": "var configIDL = { ESTABLISHMENT_ID: null, \n ESTABLISHMENT_SLUG: 'br.com.ideliveryapp.vaptvupt', \n ESTABLISHMENT_NAME: 'vaptvupt', \n SENDER_ID: '148697265154', \n ANALYTICS_ID: 'UA-77674025-1', \n MENU_STYLE: 2, \n LIST_LAYOUT: 'list', \n OPTIONAL_RECEIPT: 1, \n SERVERS: [\n'http://idlnotifications.deway.com.br/servers.json', \n 'https://ideliveryapp.com.br/servers.json' \n], \n PAY_TYPES: [ \n { \n negative_id: -1, name: 'Espécie' \n},\n { \n negative_id: -2, name: 'Cartão' \n} \n ] \n };",
	"id": "aguagas.com.br",
	"name": "vaptvupt",
	"style": "$positive: #212C31 !default; \n$balanced: #374352 !default; \n$calm: #374352 !default; \n$stable: #395F0B !default; \n$energized: #FFF !default; \n$royal: #EF2F2A !default; \n$assertive: #212C31 !default; \n$bg-color: #F4F4F4 !default; \n$bg-color-optional: #F4F4F4 !default;",
	"facebookAppId": "1530349047219822",
	"facebookAppName": "vaptvupt"
}
