{
  "config": "var configIDL = { ESTABLISHMENT_ID: null, \n ESTABLISHMENT_SLUG: 'br.com.ideliveryapp.lustrar', \n ESTABLISHMENT_NAME: 'Lustrar', \n SENDER_ID: '884730103911',\n ONESIGNAL_ID: '832634cc-04c6-4e8c-93f5-ef2d24794f72', \n ANALYTICS_ID: 'UA-102854903-1', \n LIST_LAYOUT: 'list', \n MENU_STYLE: 2, \n OPTIONAL_RECEIPT: 3, \n COMMENTS_TEXT: 'Observações', \n SHOW_SCHEDULE: true, \n SERVERS: [\n'http://idlnotifications.deway.com.br/servers.json', \n 'https://ideliveryapp.com.br/servers.json' \n], \n PAY_TYPES: [ \n { \n id: 1, name: 'Espécie', negative_id: -1 \n},\n { \n id: 2, name: 'Cartão', negative_id: -2 \n} \n ] \n };",
  "id": "br.com.ideliveryapp.lustrar",
  "name": "Lustrar",
  "senderId": "884730103911",
  "ONESIGNAL_ID": "832634cc-04c6-4e8c-93f5-ef2d24794f72",
  "style": "$positive: #ed1f1a !default; \n$balanced: #000 !default; \n$calm: #ed1f1a !default;  \n$stable: #000 !default; \n$energized: #FFF !default; \n$royal: #ed1f1a !default; \n$assertive: #f88c00; \n$bg-color: #F4F4F4 !default; \n$bg-color-optional: #F8F8F8 !default;",
  "facebookAppId": "461572120903474",
  "facebookAppName": "Lustrar"
}
