{
	"config": "var configIDL = { ESTABLISHMENT_ID: null, \n ESTABLISHMENT_SLUG: 'betapizzaria.deway.com.br', \n ESTABLISHMENT_NAME: 'Beta Pizzaria', \n SENDER_ID: '569153591997', \n ANALYTICS_ID: 'UA-81465952-1', \n LIST_LAYOUT: 'list', \n MENU_STYLE: 1, \n OPTIONAL_RECEIPT: 1, \n SERVERS: [\n'http://idlnotifications.deway.com.br/servers.json', \n 'https://ideliveryapp.com.br/servers.json' \n], \n PAY_TYPES: [ \n { \n id: 1, name: 'Espécie', negative_id: -1 \n},\n { \n id: 2, name: 'Cartão', negative_id: -2 \n} \n ] \n };",
	"id": "br.com.ideliverybetapizzaria",
	"name": "Beta Pizzaria",
	"senderId": "569153591997",
	"style": "$positive: #F75823 !default; \n$balanced: #009898 !default; \n$calm: #EF2F2A !default;  \n$stable: #003435 !default; \n$energized: #FFF !default; \n$royal: #EF2F2A !default; \n$assertive: #17A449; \n$bg-color: #F4F4F4 !default; \n$bg-color-optional: #F8F8F8 !default;",
	"facebookAppId": "823957894398464",
	"facebookAppName": "Beta Pizzaria"
}
