{
	"config": "var configIDL = { ESTABLISHMENT_ID: null, \n ESTABLISHMENT_SLUG: 'br.com.deway.queropizza', \n ESTABLISHMENT_NAME: 'iDelivery Multiloja', \n SENDER_ID: '910659275415', \n ONESIGNAL_ID: '8d798282-5156-4a4f-93c3-df791b3547c2', \n ANALYTICS_ID: 'UA-114975384-1', \n LIST_LAYOUT: 'list', \n MENU_STYLE: 1, \n OPTIONAL_RECEIPT: 1, \n COMMENTS_TEXT: 'Observações', \n SERVERS: [\n'http://idlnotifications.deway.com.br/servers.json', \n 'https://ideliveryapp.com.br/servers.json' \n], \n PAY_TYPES: [ \n { \n id: 1, name: 'Espécie', negative_id: -1 \n},\n { \n id: 2, name: 'Cartão', negative_id: -2 \n} \n, \n { \n id: 3, name: 'Online', negative_id: -3 \n} \n ] \n };",
	"id": "br.com.ideliveryqueropizza",
	"name": "iDelivery Multiloja",
  	"senderId": "910659275415",
  	"ONESIGNAL_ID": "8d798282-5156-4a4f-93c3-df791b3547c2",
	"style": "$positive: #F64008 !default; \n$balanced: #009898 !default; \n$calm: white !default;  \n$stable: #461E0F !default; \n$energized: #FFF !default; \n$royal: #27AE60 !default; \n$assertive: #F64008; \n$bg-color: #F4F4F4 !default; \n$bg-color-optional: #F8F8F8 !default;\n$login-later: #fff !default;",
	"facebookAppId": "465751030845059",
	"facebookAppName": "iDelivery Multiloja"
}
