{
	"config": "var configIDL = { ESTABLISHMENT_ID: null, \n ESTABLISHMENT_SLUG: 'br.com.ideliveryapp.primopiato', \n ESTABLISHMENT_NAME: 'Primo Piato', \n SENDER_ID: '927206489279', \n ONESIGNAL_ID: '9c41bd3e-b7f7-4326-bfc7-e285132ad284', \n ANALYTICS_ID: 'UA-110733894-1', \n LIST_LAYOUT: 'list', \n MENU_STYLE: 1, \n OPTIONAL_RECEIPT: 1, \n SERVERS: [\n'http://idlnotifications.deway.com.br/servers.json', \n 'https://ideliveryapp.com.br/servers.json' \n], \n PAY_TYPES: [ \n { \n id: 1, name: 'Espécie', negative_id: -1 \n},\n { \n id: 2, name: 'Cartão', negative_id: -2 \n} \n ] \n };",
	"id": "br.com.deway.ideliveryprimopiato",
	"name": "Primo Piato",
	"senderId": "927206489279",
	"ONESIGNAL_ID": "9c41bd3e-b7f7-4326-bfc7-e285132ad284",
	"style": "$positive: #EE2733 !default; \n$balanced: #EE2733 !default; \n$calm: #069340 !default;  \n$stable: #069340 !default; \n$energized: #FFF !default; \n$royal: #069340 !default; \n$assertive: #069340; \n$bg-color: #F4F4F4 !default; \n$bg-color-optional: #F8F8F8 !default;",
	"facebookAppId": "150736645564715",
	"facebookAppName": "Primo Piato"
}
