{
	"config": "var configIDL = { ESTABLISHMENT_ID: null, \n ESTABLISHMENT_SLUG: 'br.com.ideliveryapp.chicodocarangueijo', \n ESTABLISHMENT_NAME: 'Chico do Caranguejo', \n SENDER_ID: '841503060824', \n ONESIGNAL_ID: '29c2c17a-018e-449f-ba27-c3c104e28109', \n ANALYTICS_ID: 'UA-109849900-1', \n LIST_LAYOUT: 'list', \n MENU_STYLE: 2, \n OPTIONAL_RECEIPT: 1, \n COMMENTS_TEXT: 'Observações', \n SERVERS: [\n'http://idlnotifications.deway.com.br/servers.json', \n 'https://ideliveryapp.com.br/servers.json' \n], \n PAY_TYPES: [ \n { \n id: 1, name: 'Espécie', negative_id: -1 \n},\n { \n id: 2, name: 'Cartão', negative_id: -2 \n} \n, \n { \n id: 3, name: 'Online', negative_id: -3 \n} \n ] \n };",
	"id": "br.com.ideliveryapp.chicodocarangueijo",
	"name": "Chico do Caranguejo",
	"senderId": "841503060824",
	"ONESIGNAL_ID": "29c2c17a-018e-449f-ba27-c3c104e28109",
	"style": "$positive: #bb2a26 !default; \n$balanced: #009898 !default; \n$calm: white !default;  \n$stable: #461E0F !default; \n$energized: #FFF !default; \n$royal: #27AE60 !default; \n$assertive: #bb2a26 !default; \n$bg-color: #F4F4F4 !default; \n$bg-color-optional: #F8F8F8 !default;\n$login-later: #000 !default;",
	"facebookAppId": "454073315779280",
	"facebookAppName": "Chico do Caranguejo"
}
