{
   "config":"var configIDL = { ESTABLISHMENT_ID: null, \n ESTABLISHMENT_SLUG: 'br.com.ideliveryapp.frutinave', \n ESTABLISHMENT_NAME: 'Fruti Naves', \n SENDER_ID: '258702768397',\n ONESIGNAL_ID: '697ab513-3a80-4384-9bf6-cc7edd601224', \n ANALYTICS_ID: 'UA-126871109-1', \n LIST_LAYOUT: 'list', \n MENU_STYLE: 2, \n OPTIONAL_RECEIPT: 2, \n COMMENTS_TEXT: 'Observações', \n SHOW_SCHEDULE: true, \n SERVERS: [\n'http://idlnotifications.deway.com.br/servers.json', \n 'https://ideliveryapp.com.br/servers.json' \n], \n PAY_TYPES: [ \n { \n id: 1, name: 'Espécie', negative_id: -1 \n},\n { \n id: 2, name: 'Cartão', negative_id: -2 \n} \n, \n { \n id: 3, name: 'Online', negative_id: -3 \n} \n ] \n };",
   "id":"br.com.ideliveryapp.frutinave",
   "name":"Fruti Naves",
   "senderId":"258702768397",
   "ONESIGNAL_ID":"697ab513-3a80-4384-9bf6-cc7edd601224",
   "style":"$positive: #ce3538 !default;\n$balanced: #ce3538 !default;\n$calm: #0e0e0e !default;\n$stable: #0e0e0e !default;\n$energized: #FFF !default;\n$royal: #0e0e0e !default;\n$assertive: white !default;\n$bg-color: #F4F4F4 !default;\n$bg-color-optional: #F8F8F8 !default;\n$login-later: #ce3538 !default;\n$alter-layout-cart: black !default;",
   "facebookAppId":"235119474237754",
   "facebookAppName":"Fruti Naves"
}