{
  "project_info": {
    "project_number": "910659275415",
    "firebase_url": "https://idelivery-multiloja-20991.firebaseio.com",
    "project_id": "idelivery-multiloja-20991",
    "storage_bucket": "idelivery-multiloja-20991.appspot.com"
  },
  "client": [
    {
      "client_info": {
        "mobilesdk_app_id": "1:910659275415:android:8e40299ea52095f0ac37d2",
        "android_client_info": {
          "package_name": "br.com.ideliverybetapizzaria"
        }
      },
      "oauth_client": [
        {
          "client_id": "910659275415-n14l14mr6vd9msvima9vvkf5dm0pjlp2.apps.googleusercontent.com",
          "client_type": 3
        }
      ],
      "api_key": [
        {
          "current_key": "AIzaSyBW3m1euFCRKFxLd3HQBNvM9PwooeTlevc"
        }
      ],
      "services": {
        "appinvite_service": {
          "other_platform_oauth_client": [
            {
              "client_id": "910659275415-n14l14mr6vd9msvima9vvkf5dm0pjlp2.apps.googleusercontent.com",
              "client_type": 3
            },
            {
              "client_id": "910659275415-o155b2ith6nhqtkstmsiqatjfvef88qh.apps.googleusercontent.com",
              "client_type": 2,
              "ios_info": {
                "bundle_id": "br.com.ideliveryqueropizza"
              }
            }
          ]
        }
      }
    }
  ],
  "configuration_version": "1"
}